{
    "KPlugin": {
        "Authors": [
            {
                "Email": "sitter@kde.org",
                "Name": "Harald Sitter",
                "Name[ar]": "هارالد سِتِر",
                "Name[bg]": "Harald Sitter",
                "Name[ca@valencia]": "Harald Sitter",
                "Name[ca]": "Harald Sitter",
                "Name[en_GB]": "Harald Sitter",
                "Name[es]": "Harald Sitter",
                "Name[eu]": "Harald Sitter",
                "Name[fi]": "Harald Sitter",
                "Name[fr]": "Harald Sitter",
                "Name[it]": "Harald Sitter",
                "Name[ka]": "ჰერალდ სიტერი",
                "Name[ko]": "Harald Sitter",
                "Name[lt]": "Harald Sitter",
                "Name[nl]": "Harald Sitter",
                "Name[nn]": "Harald Sitter",
                "Name[pl]": "Harald Sitter",
                "Name[pt]": "Harald Sitter",
                "Name[pt_BR]": "Harald Sitter",
                "Name[ru]": "Harald Sitter",
                "Name[sk]": "Harald Sitter",
                "Name[sl]": "Harald Sitter",
                "Name[sv]": "Harald Sitter",
                "Name[ta]": "ஹரால்டு சிட்டர்",
                "Name[tr]": "Harald Sitter",
                "Name[uk]": "Harald Sitter",
                "Name[x-test]": "xxHarald Sitterxx"
            }
        ],
        "BugReportUrl": "https://bugs.kde.org/enter_bug.cgi?product=systemsettings&component=kcm_pulseaudio",
        "Description": "Configure audio devices and volume",
        "Description[ar]": "اضبط أجهزة الصّوت ومستوى الصوت",
        "Description[bg]": "Конфигуриране на звукови устройства и сила на звука",
        "Description[ca@valencia]": "Configura els dispositius d'àudio i el volum",
        "Description[ca]": "Configura els dispositius d'àudio i el volum",
        "Description[en_GB]": "Configure audio devices and volume",
        "Description[es]": "Configurar los dispositivos de sonido y el volumen",
        "Description[eu]": "Konfiguratu audio gailuak eta bolumena",
        "Description[fi]": "Äänilaitteiden ja äänenvoimakkuuden asetukset",
        "Description[fr]": "Configurer les périphériques et le volume audio",
        "Description[it]": "Configura dispositivi audio e volume",
        "Description[ka]": "აუდიო მოწყობილობებისა და ხმის მორგება",
        "Description[ko]": "오디오 장치 및 음량 설정",
        "Description[lt]": "Konfigūruoti garso įrenginius ir garsumą",
        "Description[nl]": "Audio-apparaten en -volume configureren",
        "Description[nn]": "Set opp lydeiningar og lydstyrke",
        "Description[pl]": "Ustawienia urządzeń dźwięku oraz głośności",
        "Description[pt]": "Configurar os dispositivos de áudio e o volume",
        "Description[pt_BR]": "Configurar o volume e dispositivos de áudio",
        "Description[ru]": "Настройка звуковых устройств и громкости звука",
        "Description[sk]": "Nastaviť zvukové zariadenia a hlasitosť",
        "Description[sl]": "Nastavi avdio naprave in glasnost",
        "Description[sv]": "Anpassa ljudenheter och volym",
        "Description[ta]": "ஒலி சாதனங்களையும் ஒலியின் அளவையும் அமையுங்கள்",
        "Description[tr]": "Ses aygıtlarını ve düzeyini yapılandırın",
        "Description[uk]": "Налаштування звукових пристроїв та гучності",
        "Description[x-test]": "xxConfigure audio devices and volumexx",
        "FormFactors": [
            "handset",
            "tablet",
            "mediacenter",
            "desktop"
        ],
        "Icon": "kmix",
        "Id": "kcm_pulseaudio",
        "License": "GPL",
        "Name": "Audio",
        "Name[ar]": "الصوت",
        "Name[az]": "Səs",
        "Name[bg]": "Аудио",
        "Name[ca@valencia]": "Àudio",
        "Name[ca]": "Àudio",
        "Name[cs]": "Audio",
        "Name[da]": "Lyd",
        "Name[de]": "Audio",
        "Name[el]": "Ήχος",
        "Name[en_GB]": "Audio",
        "Name[es]": "Sonido",
        "Name[et]": "Heli",
        "Name[eu]": "Audioa",
        "Name[fi]": "Ääni",
        "Name[fr]": "Audio",
        "Name[gl]": "Son",
        "Name[hsb]": "Awdijo",
        "Name[hu]": "Hang",
        "Name[ia]": "Audio",
        "Name[id]": "Audio",
        "Name[it]": "Audio",
        "Name[ja]": "オーディオ",
        "Name[ka]": "აუდიო",
        "Name[ko]": "오디오",
        "Name[lt]": "Garsas",
        "Name[nl]": "Audio",
        "Name[nn]": "Lyd",
        "Name[pa]": "ਆਡੀਓ",
        "Name[pl]": "Dźwięk",
        "Name[pt]": "Áudio",
        "Name[pt_BR]": "Áudio",
        "Name[ro]": "Audio",
        "Name[ru]": "Звуковые устройства",
        "Name[sk]": "Zvuk",
        "Name[sl]": "Avdio",
        "Name[sv]": "Ljud",
        "Name[ta]": "ஒலி",
        "Name[tg]": "Аудио",
        "Name[tr]": "Ses",
        "Name[uk]": "Аудіо",
        "Name[x-test]": "xxAudioxx",
        "Name[zh_CN]": "音频",
        "Name[zh_TW]": "音效"
    },
    "X-DocPath": "kcontrol/plasma-pa/index.html",
    "X-KDE-Keywords": "sound,volume,output,input,speakers,microphone,audio,music,hardware,devices,alsa,pulseaudio,pipewire,jack,hdmi,recording,playback,streams,sink,balance,audio balance,mono,stereo,surround,sound card,right speaker,left speaker,center speaker,notification sounds,analog,digital,headphone,headphones,earbuds,headset,earpiece,channel,channels,2.0,2.1,5.1,6.1,7.1",
    "X-KDE-Keywords[ar]": "صوت,سماعة,سماعات,موسيقى,أذن,إشعارات",
    "X-KDE-Keywords[az]": "sound,volume,output,input,speakers,microphone,audio,music,hardware,devices,alsa,pulseaudio,pipewire,jack,hdmi,recording,playback,streams,sink,balance,audio balance,mono,stereo,surround,sound card,right speaker,left speaker,center speaker,notification sounds,analog,digital,headphone,headphones,earbuds,headset,earpiece,channel,channels,2.0,2.1,5.1,6.1,7.1,səs,həcm,daxili,səsgücləndiricilər,mikrofon,səs,musiqi,avadanlıq,cihazlar,səsyazma,səsləndirmə,tarazlıq,səs tarazlığı,təktərəfli, ikitərəfli,əhatəli,səs kartı,sağ səsucaldan,sol səsucaldan,mərkəz səsucaldan,bildiriş səsləri,analoq,rəqəmsal,qulaqlıq,qulaqcıqlar,kanal,kanallar",
    "X-KDE-Keywords[bg]": "звук,сила на звука,изход,вход,високоговорители,микрофон,аудио,музика,хардуер,устройства,alsa,pulseaudio,topewire,жак,hdmi,запис,възпроизвеждане,потоци,баланс,аудио баланс,моно,стерео,съраунд,звукова карта,високоговорител,известия звуци,аналогови,цифрови,слушалки,слушалка,канали",
    "X-KDE-Keywords[ca@valencia]": "so,volum,eixida,entrada,altaveus,micròfon,àudio,música,maquinari,dispositius,alsa,pulseaudio,pipewire,jack,hdmi,gravació,reproducció,fluxos,conducte,balanç,balanç d'àudio,mono,estèreo,envoltant,targeta de so,altaveu dret,altaveu esquerre,altaveu central,sons de notificació,analògic,digital,auricular,auriculars,cascs,auricular,canal,canals,2.0,2.1,5.1,6.1,7.1",
    "X-KDE-Keywords[ca]": "so,volum,sortida,entrada,altaveus,micròfon,àudio,música,maquinari,dispositius,alsa,pulseaudio,pipewire,jack,hdmi,enregistrament,reproducció,fluxos,conducte,balanç,balanç d'àudio,mono,estèreo,envoltant,targeta de so,altaveu dret,altaveu esquerre,altaveu central,sons de notificació,analògic,digital,auricular,auriculars,cascs,auricular,canal,canals,2.0,2.1,5.1,6.1,7.1",
    "X-KDE-Keywords[da]": "lyd,volume,lydstyrke,output,input,højtalere,mikrofon,audio,musik,hardware,enheder,alsa,pulseaudio,pipewire,jack,hdmi,optage,optagelse,playback,streams,sink,balance,audio balance,mono,stereo,surround,sound card,højre højtaler,venstre højtaler,centerhøjtaler,bekendtgørelseslyde,notifikationslyde,digital,høretelefoner,earbuds,headset,earpiece,channel,channels,2.0,2.1,5.1,6.1,7.1,kanaler",
    "X-KDE-Keywords[el]": "ήχος,ένταση,έξοδος,είσοδος,ηχεία,μικρόφωνο,audio,μουσική,υλικό,συσκευές,alsa,pulseAudio,pipewire,jack,hdmi,εγραφή,αναπαραγωγή,ροές,sink,balance,audio balance,mono,stereo,surround,κάρτα ήχου,δεξιό ηχείο,αριστερό ηχείο,κεντρικό ηχείο,notification sounds,αναλογικό,ψηφιακό,headphone,headphones,earbuds,headset,earpiece,channel,channels,2.0,2.1,5.1,6.1,7.1",
    "X-KDE-Keywords[en_GB]": "sound,volume,output,input,speakers,microphone,audio,music,hardware,devices,alsa,pulseaudio,pipewire,jack,hdmi,recording,playback,streams,sink,balance,audio balance,mono,stereo,surround,sound card,right speaker,left speaker,centre speaker,notification sounds,analogue,digital,headphone,headphones,earbuds,headset,earpiece,channel,channels,2.0,2.1,5.1,6.1,7.1",
    "X-KDE-Keywords[es]": "sonido,volumen,salida,entrada,altavoces,micrófono,audio,música,hardware,dispositivos,alsa,pulseaudio,pipewire,jack,hdmi,grabación,reproducción,emisión,retransmisión,sink,balance,balance de sonido,mono,estéreo,surround,envolvente,tarjeta de sonido,altavoz derecho,altavoz izquierdo,altavoz central,sonidos de notificación,analógico,digital,cascos,auricular,auriculares,audífonos,canal,canales,2.0,2.1,5.1,6.1,7.1",
    "X-KDE-Keywords[eu]": "soinua,bolumena,irteerakoa,sarrerakoa,bozgorailuak,mikrofonoa,audioa,musika,hardwarea,gailuak,alsa,pulseaudio,pipewire,jack,hdmi,grabatzea,atzera-jotzea,korronteak,sink,oreka,audio-oreka,mono,estereo,inguratu,soinu-txartela,eskuin bozgorailua,ezker bozgorailua,erdiko bozgorailua,jakinarazpen soinuak,analogikoa,digitala,entzungailua,entzungailuak,audifonoak,entzungailu mikrofonoduna,belarrikoa,kanala,kanalak,2.0,2.1,5.1,6.1,7.1",
    "X-KDE-Keywords[fi]": "ääni,äänenvoimakkuus,ulostulo,sisäänmeno,kaiuttimet,mikrofoni,audio,musiikki,laitteisto,laitteet,alsa,pulseaudio,pipewire,jack,hdmi,äänitys,nauhoitus,tallennus,toisto,virrat,sink,balanssi,mono,stereo,surround,äänikortti,oikea kaiutin,vasen kaiutin,keskikaiutin,ilmoitusäänet,analoginen,digitaalinen,kuulokkeet,omoluuri,kanava,kanavat,2.0,2.1,5.1,6.1,7.1",
    "X-KDE-Keywords[fr]": "son, volume, sortie, entrée, haut-parleurs, microphone, audio, musique, matériel, périphérique, alsa, pulseaudio, fil conducteur, jack, hdmi, enregistrement, lecture, flux, récepteur, balance, balance audio, mono, stéréo, surround, carte son, haut-parleur droit, haut-parleur gauche, haut-parleur central, sons de notification, analogique, numérique, casques, oreillettes, écouteurs, canal, canaux, 2.0, 2.1, 5.1, 6.1, 7.1",
    "X-KDE-Keywords[hsb]": "sound,volume,output,input,speakers,microphone,audio,music,hardware,devices,alsa,pulseaudio,pipewire,jack,hdmi,recording,playback,streams,sink,balance,audio balance,mono,stereo,surround,sound card,right speaker,left speaker,center speaker,notification sounds,analog,digital,headphone,headphones,earbuds,headset,earpiece,channel,channels,2.0,2.1,5.1,6.1,7.1,awdijo",
    "X-KDE-Keywords[hu]": "hang,hangerő,kimenet,bemenet,hangszórók,mikrofon,audió,zene,hardver,eszközök,alsa,pulseaudio,pipewire,jack,hdmi,felvétel,lejátszás,adatfolyamok,fogadó,balansz,audiobalansz,mono,sztereó,surround,hangkártya,jobb oldali hangszóró,bal oldali hangszóró,középső hangszóró,értesítési hangok,analóg,digitális,fejhallgató,fejhallgatók,fülhallgatók,headset,fülhallgató,csatorna,csatornák,2.0,2.1,5.1,6.1,7.1",
    "X-KDE-Keywords[ia]": "sono,volumine,egresso,entrata,altoparlatores,microphono,audio,musica,hardware,dispositivos,alsa,pulseaudio,pipewire,jack,hdmi,registrar,playback,fluxoss,sink,balancia,audio balancia,mono,stereo,surround,sound card,altoparlator dextere,altoparlator sinistre,altoparlator central,sonos de notification,analog,digital,auricular,auriculares,earbuds,headset,earpiece,canal,canales,2.0,2.1,5.1,6.1,7.1",
    "X-KDE-Keywords[id]": "suara,volume,masukan,keluaran,mikrofon,audio,musik,peranti lunak,peranti,alsa,pulseaudio,pipewire,jack,hdmi,perekaman,pemainan,saluran,sink,keseimbangan,keseimbangan audio,mono,stereo,surround,kartu suara,speaker kanan,speaker kiri,speaker tengah,suara notifikasi,analog,digital,headphone,headphones,earphone,headset,earpiece,channel,channels,2.0,2.1,5.1,6.1,7.1",
    "X-KDE-Keywords[it]": "suono,volume,uscita,ingresso,altoparlanti,microfono,audio,musica,hardware,dispositivi,alsa,pulseaudio,pipewire,jack,hdmi,registrazione,riproduzione,flussi,sink,bilanciamento,bilanciamento audio,mono,stereo,surround,scheda audio,altoparlante destro,altoparlante sinistro,altoparlante centrale,suoni di notifica,analogico,digitale,cuffia,cuffie,auricolari,auricolare,canale,canali,2.0,2.1,5.1,6.1,7.1",
    "X-KDE-Keywords[ko]": "sound,volume,output,input,speakers,microphone,audio,music,hardware,devices,alsa,pulseaudio,pipewire,jack,hdmi,recording,playback,streams,sink,balance,audio balance,mono,stereo,surround,sound card,right speaker,left speaker,center speaker,notification sounds,analog,digital,headphone,headphones,earbuds,headset,earpiece,channel,channels,2.0,2.1,5.1,6.1,7.1,소리,사운드,음량,출력,입력,스피커,마이크,오디오,음악,하드웨어,장치,녹음,재생,스트림,싱크,밸런스,균형,오디오 밸런스,모노,스테레오,서라운드,사운드 카드,왼쪽 스피커,오른쪽 스피커,가운데 스피커,알림,알림음,아날로그,디지털,헤드폰,헤드셋,이어폰,채널",
    "X-KDE-Keywords[lt]": "garsas,garsis,garsumas,išvestis,isvestis,išvedimas,isvedimas,įvestis,ivestis,įvedimas,ivedimas,garsiakalbis,garsiakalbiai,mikrofonas,audio,muzika,aparatinė įranga,aparatine iranga,įrenginiai,irenginiai,alsa,pulseaudio,pipewire,jack,hdmi,įrašymas,irasymas,įrašinėjimas,irasinejimas,atkūrimas,atkurimas,grojimas,srautai,rinktuvas,balansas,pusiausvyra,garso balansas,audio balansas,mono,stereo,surround,erdvinis,garso plokštė,garso plokste,dešinys garsiakalbis,desinys garsiakalbis,dešinysis garsiakalbis,desinysis garsiakalbis,kairys garsiakalbis,kairysis garsiakalbis,centrinis garsiakalbis,vidurinis garsiakalbis,vidurinysis garsiakalbis,pranešimų garsai,pranesimu garsai,analoginis,analoginė,analogine,skaitmeninis,skaitmeninė,skaitmenine,ausinės,ausines,ausinės ir mikrofonas,ausinės su mikrofonu,ausines ir mikrofonas,ausines su mikrofonu,ausinė,ausine,kanalas,kanalai,2.0,2.1,5.1,6.1,7.1",
    "X-KDE-Keywords[nl]": "geluid,volume,uitvoer,invoer,speakers,microfoon,audio,muziek,hardware,apparaten,alsa,pulseaudio,pipewire,jack,hdmi,opnemen,afspelen,streams, sink,balans,audiobalans,mono,stereo,surround,geluidskaart,rechter speaker,linker speaker,centrale speaker,meldingsgeluiden,analoog,digitaal,koptelefoon,koptelefoons,earbuds,headset,earpiece,kanaal,kanalen,2.0,2.1,5.1,6.1,7.1",
    "X-KDE-Keywords[nn]": "lyd,volum,lydstyrke,utlyd,innlyd,høgtalarar,mikrofon,audio,musikk,maskinvare,einingar,alsa,pulseaudio,pipewire,jack,hdmi,opptak,avspeling,straumar,sink,balanse,lydbalanse,mono,stereo,surround,kringlyd,omgjevnadslyd,lydkort,høgre høgtalar,venstre høgtalar,senterhøgtalar,varslingslydar,analog,digital,hovudtelefon,hovudtelefonar,høyretelefon,høyretelefonar,øyreproppar,øyreknottar,øyrepluggar,headset,kanal,kanalar,2.0,2.1,5.1,6.1,7.1",
    "X-KDE-Keywords[pl]": "dźwięk,głośność,wyjście,wejście,głośniki,mikrofon,audio,muzyka,sprzęt,urządzenia,alsa,pulseaudio,pipewire,jack,hdmi,nagrywanie,odtwarzanie,strumienie,sink,podział głośności,podział dźwięku,mono,stereo,surround,karta dźwiękowa,prawy głośnik,lewy głośnik,środkowy głośnik,dźwięki powiadomień,analogowy,cyfrowy,słuchawka,słuchawki,słuchawki,zestaw słuchawkowy,słuchawka,kanał,kanały,2.0,2.1,5.1,6.1,7.1",
    "X-KDE-Keywords[pt]": "som,volume,saída,entrada,altifalantes,microfone,áudio,música,hardware,dispositivos,alsa,pulseaudio,pipewire,jack,hdmi,gravação,reprodução,sequências,receptor,balanceamento,balanceamento de áudio,mono,estéreo,surround,placa de som,altifalante direito,altifalante esquerdo,altifalante central,sons da notificação,analógico,digital,auscultador,auscultadores,mini-auscultador,kit de auscultadores,auricular,canal,canais,2.0,2.1,5.1,6.1,7.1",
    "X-KDE-Keywords[pt_BR]": "som,volume,saída,entrada,alto-falantes,microfone,áudio,música,hardware,dispositivos,alsa,pulseaudio,pipewire,jack,hdmi,gravação,reprodução,fluxos,balanço,balanço de áudio,mono,estéreo,surround,placa de som,alto-falante direito,alto-falante esquerdo,alto-falante central,sons de notificação,analógico,digital,fone de ouvido,fones de ouvido,headset,canal,canais,2.0,2.1,5.1,6.1,7.1",
    "X-KDE-Keywords[ro]": "sunet,volum,ieșire,intrare,difuzoare,microfon,audio,muzică,echipament,dispozitive,alsa,pulseaudio,pipewire,jack,hdmi,înregistrare,redare,fluxuri,chiuvetă,balanță,mono,stereo,surround,placă de sunet,cartelă de sunet,difuzor dreapta,difuzor stânga,difuzor centru,sunete de notificare,analogic,digital,cască,căști,set cu cască,canal,canale,2.0,2.1,5.1,6.1,7.1",
    "X-KDE-Keywords[ru]": "sound,volume,output,input,speakers,microphone,audio,music,hardware,devices,alsa,pulseaudio,pipewire,jack,hdmi,recording,playback,streams,sink,balance,audio balance,mono,stereo,surround,sound card,right speaker,left speaker,center speaker,notification sounds,analog,digital,headphone,headphones,earbuds,headset,earpiece,channel,channels,2.0,2.1,5.1,6.1,7.1,звук,громкость,выход,вход,динамики,колонки,микрофон,музыка,оборудование,устройства,запись,воспроизведение,потоки,баланс,стерео,звуковая карта,звуки уведомления,аналоговый,цифровой,наушники,гарнитура,канал,каналы",
    "X-KDE-Keywords[sk]": "zvuk,hlasitosť,výstup,vstup,reproduktory,mikrofón,zvuk,hudba,hardvér,zariadenia,alsa,pulseaudio,pipewire,jack,hdmi,nahrávanie,prehrávanie,streamy,odtok,vyváženie,vyváženie zvuku,mono,stereo,surround,zvuková karta,pravý reproduktor,ľavý reproduktor,stredový reproduktor,zvuky oznámenia,analógové,digitálne,slúchadlo,slúchadlá,slúchadlá,náhlavná súprava,slúchadlo,kanál,kanály,2.0,2.1,5.1,6.1,7.1",
    "X-KDE-Keywords[sl]": "zvok,glasnost,izhod,vhod,zvočniki,mikrofon,avdio,glasba,strojna oprema,naprave,alsa,pulseaudio,pipewire,vtikač,hdmi,snemanje,predvajanje,potoki,ponor,ravnotežje,avdio ravnovesje,mono,stereo,prostorska zvočna kartica,desni zvočnik,levi zvočnik,osrednji zvočnik,zvočniki za obvestila,analogni,digitalni,slušalke,slušalke,ušesne slušalke, ušesna slušalka,kanal,kanali,2.0,2.1,5.1,6.1,7.1",
    "X-KDE-Keywords[sv]": "ljud,volym,utmatning,inmatning,högtalare,mikrofon,ljud,musik,maskinvara,enheter,alsa,pulseaudio,pipewire,jack,hdmi,inspelning,uppspelning,strömmar,sänke,balans,ljudbalans,mono,stereo,surround,ljudkort,höger högtalare,vänster högtalare,centerhögtalare,underrättelseljud,analog,digital,hörlur,hörlurar,öronsnäckor,headset,kanal,kanaler,2.0,2.1,5.1,6.1,7.1",
    "X-KDE-Keywords[ta]": "sound,volume,output,input,speakers,microphone,audio,music,hardware,devices,alsa,pulseaudio,pipewire,jack,hdmi,recording,playback,streams,sink,balance,audio balance,mono,stereo,surround,sound card,right speaker,left speaker,center speaker,notification sounds,analog,digital,headphone,headphones,earbuds,headset,earpiece,channel,channels,2.0,2.1,5.1,6.1,7.1, ஒலி, ஓசை, சத்தம், சப்தம், உள்ளீடு, வெளியீடு, ஒலிபெருக்கி, ஒலிவாங்கி, பாட்டு, இசை, வன்பொருள், சாதனங்கள், ஒலி அளவு, ஒலியளவு, ஒலிப்பதிவு, பதிவு, அறிவிப்பு ஒலிகள், ஒலி அட்டை, ஒலியட்டை",
    "X-KDE-Keywords[tr]": "ses,düzey,çıkış,giriş,hoparlörler,mikrofon,ses,müzik,donanım,aygıtlar,alsa,pulseaudio,pipewire,jack,hdmi,kayıt,çal,akışlar,sink,denge,ses dengesi,tek kanallı,çift kanallı,sarmalayan,ses kartı,sağ hoparlör,sol hoparlör,merkez hoparlör,bildirim sesleri,analog,dijital,kulaklık,kulaklıklar,kulak içi kulaklıklar,kulak seti,tek kulaklık,kanal,kanallar,2.0,2.1,5.1,6.1,7.1",
    "X-KDE-Keywords[uk]": "sound,volume,output,input,speakers,microphone,audio,music,hardware,devices,alsa,pulseaudio,pipewire,jack,hdmi,recording,playback,streams,sink,balance,audio balance,mono,stereo,surround,sound card,right speaker,left speaker,center speaker,notification sounds,analog,digital,headphone,headphones,earbuds,headset,earpiece,channel,channels,2.0,2.1,5.1,6.1,7.1,звук,гучність,виведення,вихід,введення,вхід,гучномовці,спікери,динаміки,мікрофон,звук,аудіо,музика,обладнання,апаратне забезпечення,пристрої,алса,пульсаудіо,пульсавдіо,пайпвайр,пайпває,джек,ейчдіемай,хдма,запис,відтворення,потоки,баланс,баланс звуку,моно,стерео,просторовий,звукова картка,правий динамік,лівий динамік,центральний динамік,звуки сповіщень,аналоговий,цифровий,навушник,навушники,вкладиші,гарнітура,канал,канали",
    "X-KDE-Keywords[x-test]": "xxsoundxx,xxvolumexx,xxoutputxx,xxinputxx,xxspeakersxx,xxmicrophonexx,xxaudioxx,xxmusicxx,xxhardwarexx,xxdevicesxx,xxalsaxx,xxpulseaudioxx,xxpipewirexx,xxjackxx,xxhdmixx,xxrecordingxx,xxplaybackxx,xxstreamsxx,xxsinkxx,xxbalancexx,xxaudio balancexx,xxmonoxx,xxstereoxx,xxsurroundxx,xxsound cardxx,xxright speakerxx,xxleft speakerxx,xxcenter speakerxx,xxnotification soundsxx,xxanalogxx,xxdigitalxx,xxheadphonexx,xxheadphonesxx,xxearbudsxx,xxheadsetxx,xxearpiecexx,xxchannelxx,xxchannelsxx,xx2.0xx,xx2.1xx,xx5.1xx,xx6.1xx,xx7.1xx",
    "X-KDE-Keywords[zh_CN]": "sound,volume,output,input,speakers,microphone,audio,music,hardware,devices,alsa,pulseaudio,pipewire,jack,hdmi,recording,playback,streams,sink,balance,audio balance,mono,stereo,surround,sound card,right speaker,left speaker,center speaker,notification sounds,analog,digital,headphone,headphones,earbuds,headset,earpiece,channel,channels,2.0,2.1,5.1,6.1,7.1,声音,音量,输出,输入,扬声器,音箱,麦克风,音频,音乐,硬件,设备,录音,播放,回放,流,平衡,音频平衡,声道平衡,单声道,立体声,环绕声,声卡,右扬声器,右音箱,左扬声器,左音箱,中扬声器,中置音箱,通知声音,通知声效,模拟,数字,耳机,耳塞,头戴式,头戴式耳机,听筒,话筒,声道",
    "X-KDE-System-Settings-Parent-Category": "hardware",
    "X-KDE-Weight": 60
}
